language,run,time,rate
ruby,1,0.91,10989.01
ruby,2,0.91,10989.01
ruby,3,0.95,10526.32
ruby,4,0.94,10638.30
ruby,5,0.94,10638.30
ruby,6,0.92,10869.57
ruby,7,0.96,10416.67
ruby,8,0.97,10309.28
ruby,9,0.92,10869.57
ruby,10,0.93,10752.69
ruby-jit,1,0.98,10204.08
ruby-jit,2,1.00,10000.00
ruby-jit,3,0.99,10101.01
ruby-jit,4,0.96,10416.67
ruby-jit,5,0.93,10752.69
ruby-jit,6,0.98,10204.08
ruby-jit,7,0.93,10752.69
ruby-jit,8,0.92,10869.57
ruby-jit,9,0.94,10638.30
ruby-jit,10,0.94,10638.30
crystal,1,0.98,10204.08
crystal,2,0.93,10752.69
crystal,3,0.92,10869.57
crystal,4,0.93,10752.69
crystal,5,0.95,10526.32
crystal,6,0.94,10638.30
crystal,7,0.93,10752.69
crystal,8,0.92,10869.57
crystal,9,0.94,10638.30
crystal,10,0.92,10869.57
go,1,0.91,10989.01
go,2,0.94,10638.30
go,3,0.91,10989.01
go,4,0.89,11235.96
go,5,0.91,10989.01
go,6,0.90,11111.11
go,7,0.88,11363.64
go,8,0.91,10989.01
go,9,0.92,10869.57
go,10,0.89,11235.96
c,1,0.87,11494.25
c,2,0.83,12048.19
c,3,0.83,12048.19
c,4,0.83,12048.19
c,5,0.82,12195.12
c,6,0.84,11904.76
c,7,0.81,12345.68
c,8,0.85,11764.71
c,9,0.82,12195.12
c,10,0.85,11764.71
